work/tb_wishbone.vcd
$date
   Thu Feb 26 01:49:26 2026
$end

$version
  2025.2
  $dumpfile ("tb_wishbone.vcd") 
$end

$timescale
  1ps
$end

$scope module tb_wishbone $end
$var reg 1 ! clk $end
$var reg 1 " rst_n $end
$var reg 16 # m0_cmd_addr [15:0] $end
$var reg 32 $ m0_cmd_wdata [31:0] $end
$var reg 1 % m0_cmd_we $end
$var reg 1 & m0_cmd_valid $end
$var reg 1 ' m0_cmd_ready $end
$var reg 32 ( m0_rsp_rdata [31:0] $end
$var reg 1 ) m0_rsp_valid $end
$var reg 16 * wb_adr [15:0] $end
$var reg 32 + wb_dat_m2s [31:0] $end
$var reg 32 , wb_dat_s2m [31:0] $end
$var reg 1 - wb_we $end
$var reg 4 . wb_sel [3:0] $end
$var reg 1 / wb_stb $end
$var reg 1 0 wb_cyc $end
$var reg 1 1 wb_ack $end
$var reg 1 2 wb_err $end
$var reg 32 3 reg_out [31:0] $end
$var reg 1 4 s0_stb $end
$var reg 1 5 s0_cyc $end
$var reg 1 6 s0_we $end
$var reg 1 7 s0_ack $end
$var reg 16 8 s0_adr [15:0] $end
$var reg 32 9 s0_wdat [31:0] $end
$var reg 32 : s0_rdat [31:0] $end
$var reg 4 ; s0_sel [3:0] $end
$scope module u_m0 $end
$var wire 1 < clk $end
$var wire 1 = rst_n $end
$var wire 16 > cmd_addr [15:0] $end
$var wire 32 ? cmd_wdata [31:0] $end
$var wire 1 @ cmd_we $end
$var wire 1 A cmd_valid $end
$var reg 1 ' cmd_ready $end
$var reg 32 ( rsp_rdata [31:0] $end
$var reg 1 ) rsp_valid $end
$var reg 16 * wbm_adr_o [15:0] $end
$var reg 32 + wbm_dat_o [31:0] $end
$var wire 32 B wbm_dat_i [31:0] $end
$var reg 1 - wbm_we_o $end
$var reg 4 . wbm_sel_o [3:0] $end
$var reg 1 / wbm_stb_o $end
$var reg 1 0 wbm_cyc_o $end
$var wire 1 C wbm_ack_i $end
$var wire 1 D wbm_err_i $end
$var reg 1 E state $end
$upscope $end
$scope module u_reg $end
$var wire 1 F clk $end
$var wire 1 G rst_n $end
$var wire 16 H wbs_adr_i [15:0] $end
$var wire 32 I wbs_dat_i [31:0] $end
$var reg 32 , wbs_dat_o [31:0] $end
$var wire 1 J wbs_we_i $end
$var wire 4 K wbs_sel_i [3:0] $end
$var wire 1 L wbs_stb_i $end
$var wire 1 M wbs_cyc_i $end
$var reg 1 1 wbs_ack_o $end
$var reg 1 2 wbs_err_o $end
$var reg 32 3 reg_out [31:0] $end
$var reg 32 N data_reg [31:0] $end
$var reg 1 O wb_valid $end
$var reg 1 P wb_write $end
$var reg 1 Q wb_read $end
$upscope $end
$scope begin Block148_7 $end
$var reg 32 R read_data [31:0] $end
$upscope $end
$scope task m0_write $end
$upscope $end
$scope task m0_read $end
$upscope $end
$upscope $end
$enddefinitions $end

#0
$dumpvars
0!
0"
b0 #
b0 $
0%
0&
1'
b0 (
0)
b0 *
b0 +
b0 ,
0-
b0 .
0/
00
01
02
b0 3
04
05
06
07
b0 8
b0 9
b0 :
b0 ;
0<
0=
b0 >
b0 ?
0@
0A
b0 B
0C
0D
0E
0F
0G
b0 H
b0 I
0J
b0 K
0L
0M
b0 N
0O
0P
0Q
bx R
$end

#5000
1!
1<
1F

#10000
0!
0<
0F

#15000
1!
1<
1F

#20000
0!
0<
0F

#25000
1!
1<
1F

#30000
0!
1"
0<
1=
0F
1G

#35000
1!
1<
1F

#40000
0!
0<
0F

#45000
1!
1<
1F

#50000
0!
0<
0F

#55000
1!
b10100101101001011010010110100101 $
1%
1&
1<
b10100101101001011010010110100101 ?
1@
1A
1F

#60000
0!
0<
0F

#65000
1!
0&
0'
b10100101101001011010010110100101 +
1-
b1111 .
1/
10
14
15
16
b10100101101001011010010110100101 9
b1111 ;
1<
0A
1E
1F
b10100101101001011010010110100101 I
1J
b1111 K
1L
1M
1O
1P

#70000
0!
0<
0F

#75000
1!
11
b10100101101001011010010110100101 3
17
1<
1C
1F
b10100101101001011010010110100101 N

#80000
0!
0<
0F

#85000
1!
1'
1)
0/
00
11
04
05
1<
0E
1F
0L
0M
0O
0P

#90000
0!
0<
0F

#95000
1!
0)
01
07
1<
0C
1F

#100000
0!
0<
0F

#105000
1!
b0 $
0%
1&
1<
b0 ?
0@
1A
1F

#110000
0!
0<
0F

#115000
1!
0&
0'
b0 +
0-
1/
10
14
15
06
b0 9
1<
0A
1E
1F
b0 I
0J
1L
1M
1O
1Q

#120000
0!
0<
0F

#125000
1!
b10100101101001011010010110100101 ,
11
17
b10100101101001011010010110100101 :
1<
b10100101101001011010010110100101 B
1C
1F

#130000
0!
0<
0F

#135000
1!
1'
b10100101101001011010010110100101 (
1)
0/
00
11
04
05
1<
0E
1F
0L
0M
0O
0Q

#140000
0!
0<
0F

#145000
1!
0)
01
07
1<
0C
1F
b10100101101001011010010110100101 R

#150000
0!
0<
0F

#155000
1!
1<
1F

#160000
0!
0<
0F

#165000
1!
1<
1F

#170000
0!
0<
0F

#175000
1!
1<
1F

#180000
0!
0<
0F

#185000
1!
1<
1F

#190000
0!
0<
0F

#195000
1!
1<
1F

#200000
0!
0<
0F

#205000
1!
b10010001101000101011001111000 $
1%
1&
1<
b10010001101000101011001111000 ?
1@
1A
1F

#210000
0!
0<
0F

#215000
1!
0&
0'
b10010001101000101011001111000 +
1-
1/
10
14
15
16
b10010001101000101011001111000 9
1<
0A
1E
1F
b10010001101000101011001111000 I
1J
1L
1M
1O
1P

#220000
0!
0<
0F

#225000
1!
11
b10010001101000101011001111000 3
17
1<
1C
1F
b10010001101000101011001111000 N

#230000
0!
0<
0F

#235000
1!
1'
1)
0/
00
11
04
05
1<
0E
1F
0L
0M
0O
0P

#240000
0!
0<
0F

#245000
1!
0)
01
07
1<
0C
1F

#250000
0!
0<
0F

#255000
1!
b0 $
0%
1&
1<
b0 ?
0@
1A
1F

#260000
0!
0<
0F

#265000
1!
0&
0'
b0 +
0-
1/
10
14
15
06
b0 9
1<
0A
1E
1F
b0 I
0J
1L
1M
1O
1Q

#270000
0!
0<
0F

#275000
1!
b10010001101000101011001111000 ,
11
17
b10010001101000101011001111000 :
1<
b10010001101000101011001111000 B
1C
1F

#280000
0!
0<
0F

#285000
1!
1'
b10010001101000101011001111000 (
1)
0/
00
11
04
05
1<
0E
1F
0L
0M
0O
0Q

#290000
0!
0<
0F

#295000
1!
0)
01
07
1<
0C
1F
b10010001101000101011001111000 R

